{
    "openapi": "3.0.0",
    "info": {
        "title": "WGO API",
        "version": "0.1"
    },
    "paths": {
        "/api/artists": {
            "get": {
                "tags": [
                    "Artists"
                ],
                "summary": "Retrieve artists",
                "operationId": "8b44867f2e638b789c8472dce8005091",
                "parameters": [
                    {
                        "name": "id",
                        "in": "query",
                        "required": false,
                        "schema": {
                            "type": "string"
                        },
                        "example": "1,3,55"
                    },
                    {
                        "name": "name",
                        "in": "query",
                        "required": false,
                        "example": "art"
                    },
                    {
                        "name": "slug",
                        "in": "query",
                        "required": false,
                        "schema": {
                            "type": "string"
                        },
                        "example": "art"
                    },
                    {
                        "name": "genre_id",
                        "in": "query",
                        "required": false,
                        "schema": {
                            "type": "string"
                        },
                        "example": "1,3,55"
                    },
                    {
                        "name": "country_id",
                        "in": "query",
                        "required": false,
                        "schema": {
                            "type": "string"
                        },
                        "example": "1,3,55"
                    },
                    {
                        "name": "company_id",
                        "in": "query",
                        "required": false,
                        "schema": {
                            "type": "string"
                        },
                        "example": "1,3,55"
                    },
                    {
                        "name": "is_main",
                        "in": "query",
                        "required": false,
                        "schema": {
                            "type": "boolean"
                        },
                        "example": "bool"
                    }
                ],
                "responses": {
                    "200": {
                        "description": "The data"
                    }
                }
            }
        },
        "/api/events": {
            "get": {
                "tags": [
                    "Events"
                ],
                "summary": "Retrieve events",
                "operationId": "e529c81e6aaec82f49950a87ed881f57",
                "parameters": [
                    {
                        "name": "id[]",
                        "in": "query",
                        "required": false,
                        "schema": {
                            "type": "array",
                            "items": {
                                "type": "integer"
                            }
                        },
                        "example": "[1,3,55]"
                    },
                    {
                        "name": "name",
                        "in": "query",
                        "required": false,
                        "schema": {
                            "type": "string"
                        },
                        "example": "tomorrow"
                    },
                    {
                        "name": "date",
                        "in": "query",
                        "required": false,
                        "schema": {
                            "type": "date"
                        },
                        "example": "2022-12-15"
                    },
                    {
                        "name": "location_id",
                        "in": "query",
                        "required": false,
                        "schema": {
                            "type": "array",
                            "items": {
                                "type": "integer"
                            }
                        },
                        "example": "[1,2,44]"
                    },
                    {
                        "name": "event_type_id",
                        "in": "query",
                        "required": false,
                        "schema": {
                            "type": "array",
                            "items": {
                                "type": "integer"
                            }
                        },
                        "example": "[3,5]"
                    },
                    {
                        "name": "genre_id",
                        "in": "query",
                        "required": false,
                        "schema": {
                            "type": "array",
                            "items": {
                                "type": "integer"
                            }
                        },
                        "example": "[1]"
                    },
                    {
                        "name": "artist_id",
                        "in": "query",
                        "required": false,
                        "schema": {
                            "type": "array",
                            "items": {
                                "type": "integer"
                            }
                        },
                        "example": "[5,8]"
                    },
                    {
                        "name": "is_main",
                        "in": "query",
                        "required": false,
                        "schema": {
                            "type": "boolean"
                        },
                        "example": "bool"
                    },
                    {
                        "name": "city_id",
                        "in": "query",
                        "required": false,
                        "schema": {
                            "type": "array",
                            "items": {
                                "type": "integer"
                            }
                        },
                        "example": "[9, 20]"
                    },
                    {
                        "name": "country_id",
                        "in": "query",
                        "required": false,
                        "schema": {
                            "type": "array",
                            "items": {
                                "type": "integer"
                            }
                        },
                        "example": "[9, 20]"
                    }
                ],
                "responses": {
                    "200": {
                        "description": "Collection of Events"
                    }
                }
            }
        },
        "/api/events/create": {
            "post": {
                "tags": [
                    "Events"
                ],
                "summary": "Create event",
                "operationId": "b69d6fb859d3cc857a786a553d99b127",
                "parameters": [
                    {
                        "name": "name",
                        "in": "query",
                        "required": true,
                        "example": "Nome do evento"
                    },
                    {
                        "name": "details",
                        "in": "query",
                        "required": true,
                        "example": "Detalhes do evento"
                    }
                ],
                "responses": {
                    "200": {
                        "description": "Response 200"
                    }
                }
            }
        },
        "/api/countries": {
            "get": {
                "tags": [
                    "General"
                ],
                "summary": "Retrieve countries",
                "operationId": "088740dbf4f87627f83209f84e8950ed",
                "parameters": [
                    {
                        "name": "name",
                        "in": "query",
                        "required": false,
                        "schema": {
                            "type": "string"
                        },
                        "example": "1"
                    }
                ],
                "responses": {
                    "200": {
                        "description": "The data"
                    }
                }
            }
        },
        "/api/states": {
            "get": {
                "tags": [
                    "General"
                ],
                "summary": "Retrieve states",
                "operationId": "f3b78aefd996ca0044422473393cb014",
                "parameters": [
                    {
                        "name": "country_id",
                        "in": "query",
                        "required": false,
                        "schema": {
                            "type": "int"
                        },
                        "example": "1"
                    },
                    {
                        "name": "name",
                        "in": "query",
                        "required": false,
                        "schema": {
                            "type": "string"
                        },
                        "example": "nome"
                    }
                ],
                "responses": {
                    "200": {
                        "description": "The data"
                    }
                }
            }
        },
        "/api/cities": {
            "get": {
                "tags": [
                    "General"
                ],
                "summary": "Retrieve cities",
                "operationId": "af14e6270cfda591bfdc972ace50d07b",
                "parameters": [
                    {
                        "name": "state_id",
                        "in": "query",
                        "required": false,
                        "schema": {
                            "type": "int"
                        },
                        "example": "1"
                    },
                    {
                        "name": "name",
                        "in": "query",
                        "required": false,
                        "schema": {
                            "type": "string"
                        },
                        "example": "nome"
                    }
                ],
                "responses": {
                    "200": {
                        "description": "The data"
                    }
                }
            }
        },
        "/api/genres": {
            "get": {
                "tags": [
                    "General"
                ],
                "summary": "Retrieve genres",
                "operationId": "f336f5cec086cf2924a5d5b4be5d9175",
                "parameters": [
                    {
                        "name": "name",
                        "in": "query",
                        "required": false,
                        "schema": {
                            "type": "string"
                        },
                        "example": "nome"
                    }
                ],
                "responses": {
                    "200": {
                        "description": "The data"
                    }
                }
            }
        },
        "/api/locations": {
            "get": {
                "tags": [
                    "General"
                ],
                "summary": "Retrieve locations",
                "operationId": "4bbdac1be0542fba532dcefe394cfc65",
                "parameters": [
                    {
                        "name": "name",
                        "in": "query",
                        "required": false,
                        "schema": {
                            "type": "string"
                        },
                        "example": "nome"
                    }
                ],
                "responses": {
                    "200": {
                        "description": "The data"
                    }
                }
            }
        },
        "/api/companies": {
            "get": {
                "tags": [
                    "General"
                ],
                "summary": "Retrieve companies",
                "operationId": "e42c3128b9534dac40af11ef53d37ed0",
                "parameters": [
                    {
                        "name": "name",
                        "in": "query",
                        "required": false,
                        "schema": {
                            "type": "string"
                        },
                        "example": "nome"
                    }
                ],
                "responses": {
                    "200": {
                        "description": "The data"
                    }
                }
            }
        },
        "/api/categories": {
            "get": {
                "tags": [
                    "General"
                ],
                "summary": "Retrieve categories",
                "operationId": "c7b7ba9525da5d86bab3c0b3c763118e",
                "parameters": [
                    {
                        "name": "name",
                        "in": "query",
                        "required": false,
                        "schema": {
                            "type": "string"
                        },
                        "example": "nome"
                    }
                ],
                "responses": {
                    "200": {
                        "description": "The data"
                    }
                }
            }
        },
        "/api/eventTypes": {
            "get": {
                "tags": [
                    "General"
                ],
                "summary": "Retrieve event types",
                "operationId": "bb9c41976ea758ba5bbb7e3bd7987335",
                "parameters": [
                    {
                        "name": "name",
                        "in": "query",
                        "required": false,
                        "schema": {
                            "type": "string"
                        },
                        "example": "nome"
                    }
                ],
                "responses": {
                    "200": {
                        "description": "The data"
                    }
                }
            }
        },
        "/api/tags": {
            "get": {
                "tags": [
                    "General"
                ],
                "summary": "Retrieve tags",
                "operationId": "420c3befdbb13e907014bc8f62bcc2dd",
                "parameters": [
                    {
                        "name": "name",
                        "in": "query",
                        "required": false,
                        "schema": {
                            "type": "string"
                        },
                        "example": "nome"
                    }
                ],
                "responses": {
                    "200": {
                        "description": "The data"
                    }
                }
            }
        },
        "/api/news": {
            "get": {
                "tags": [
                    "News"
                ],
                "summary": "Retrieve news",
                "operationId": "a03e1a336bc332d11c385fe176757db9",
                "parameters": [
                    {
                        "name": "id",
                        "in": "query",
                        "required": false,
                        "schema": {
                            "type": "string"
                        },
                        "example": "1,3,55"
                    },
                    {
                        "name": "title",
                        "in": "query",
                        "required": false,
                        "example": "art"
                    },
                    {
                        "name": "slug",
                        "in": "query",
                        "required": false,
                        "example": "art"
                    },
                    {
                        "name": "content",
                        "in": "query",
                        "required": false,
                        "example": "content"
                    },
                    {
                        "name": "category_id",
                        "in": "query",
                        "required": false,
                        "schema": {
                            "type": "string"
                        },
                        "example": "1,3,55"
                    },
                    {
                        "name": "artist_id",
                        "in": "query",
                        "required": false,
                        "schema": {
                            "type": "string"
                        },
                        "example": "1,3,55"
                    }
                ],
                "responses": {
                    "200": {
                        "description": "The data"
                    }
                }
            }
        },
        "/api/pages": {
            "get": {
                "tags": [
                    "Pages"
                ],
                "summary": "Retrieve pages",
                "operationId": "2914aae3cea30d3d9c28c2e313cf03e7",
                "parameters": [
                    {
                        "name": "id",
                        "in": "query",
                        "required": false,
                        "schema": {
                            "type": "string"
                        },
                        "example": "1,3,55"
                    },
                    {
                        "name": "title",
                        "in": "query",
                        "required": false,
                        "example": "art"
                    },
                    {
                        "name": "sub_title",
                        "in": "query",
                        "required": false,
                        "example": "art"
                    },
                    {
                        "name": "content",
                        "in": "query",
                        "required": false,
                        "example": "art"
                    },
                    {
                        "name": "slug",
                        "in": "query",
                        "required": false,
                        "example": "art"
                    },
                    {
                        "name": "key_words",
                        "in": "query",
                        "required": false,
                        "example": "content"
                    }
                ],
                "responses": {
                    "200": {
                        "description": "The data"
                    }
                }
            }
        },
        "/api/releases": {
            "get": {
                "tags": [
                    "Releases"
                ],
                "summary": "Retrieve releases",
                "operationId": "641978a4f97afa2e4fa1ed368a7934f1",
                "parameters": [
                    {
                        "name": "id",
                        "in": "query",
                        "required": false,
                        "schema": {
                            "type": "string"
                        },
                        "example": "1,3,55"
                    },
                    {
                        "name": "name",
                        "in": "query",
                        "required": false,
                        "example": "art"
                    },
                    {
                        "name": "slug",
                        "in": "query",
                        "required": false,
                        "example": "art"
                    },
                    {
                        "name": "date",
                        "in": "query",
                        "required": false,
                        "example": "art"
                    },
                    {
                        "name": "month",
                        "in": "query",
                        "required": false,
                        "example": "art"
                    },
                    {
                        "name": "artist_d",
                        "in": "query",
                        "required": false,
                        "example": "1,3,55"
                    },
                    {
                        "name": "company_id",
                        "in": "query",
                        "required": false,
                        "example": "1,3,55"
                    },
                    {
                        "name": "genre_id",
                        "in": "query",
                        "required": false,
                        "example": "1,3,55"
                    }
                ],
                "responses": {
                    "200": {
                        "description": "The data"
                    }
                }
            }
        }
    }
}