<svg xmlns="http://www.w3.org/2000/svg" width="16" height="16.005" viewBox="0 0 16 16.005">
  <path id="Caminho_4000" data-name="Caminho 4000" d="M101.444,36.112A1.555,1.555,0,0,1,103,37.668v5.779A1.556,1.556,0,0,1,101.444,45h-4a1.556,1.556,0,0,1-1.556-1.556V37.668a1.556,1.556,0,0,1,1.556-1.556Zm-8.875,3.567a1.556,1.556,0,0,1,1.556,1.556v2.211A1.556,1.556,0,0,1,92.569,45H88.556A1.556,1.556,0,0,1,87,43.447V41.236a1.556,1.556,0,0,1,1.556-1.556ZM92.557,29a1.556,1.556,0,0,1,1.556,1.556v5.779a1.555,1.555,0,0,1-1.428,1.55l-.127.005h-4A1.556,1.556,0,0,1,87,36.333V30.554A1.556,1.556,0,0,1,88.556,29Zm8.888,0A1.556,1.556,0,0,1,103,30.554v2.223a1.556,1.556,0,0,1-1.556,1.556h-4a1.556,1.556,0,0,1-1.556-1.556V30.554A1.556,1.556,0,0,1,97.443,29Z" transform="translate(-87 -28.998)" fill="#2c2929"/>
</svg>
