<?xml version="1.0" encoding="UTF-8"?>
<svg id="Camada_2" data-name="Camada 2" xmlns="http://www.w3.org/2000/svg" viewBox="0 0 22.42 23.71">
  <g id="Camada_1-2" data-name="Camada 1">
    <path d="m17.81,14.49c-1.35,0-2.63.6-3.5,1.64l-5.22-3.13c.21-.74.21-1.53,0-2.27l5.22-3.13c1.66,1.92,4.55,2.13,6.47.47,1.92-1.66,2.13-4.55.47-6.47-1.66-1.92-4.55-2.13-6.47-.47-1.02.88-1.6,2.15-1.59,3.5,0,.18.03.36.05.54l-5.52,3.31c-1.87-1.72-4.79-1.6-6.51.27-1.72,1.87-1.6,4.79.27,6.51,1.76,1.62,4.48,1.62,6.24,0l5.52,3.31c-.03.18-.05.36-.05.54,0,2.55,2.06,4.61,4.61,4.61s4.61-2.06,4.61-4.61-2.06-4.61-4.61-4.61Z"/>
  </g>
</svg>