<svg xmlns="http://www.w3.org/2000/svg" width="16" height="16" viewBox="0 0 16 16">
  <path id="Caminho_3996" data-name="Caminho 3996" d="M95.857.555,97.81,4.692l4.373.665a.993.993,0,0,1,.806,1.135,1.018,1.018,0,0,1-.275.567l-3.163,3.194L100.3,14.8a1,1,0,0,1-.784,1.154.919.919,0,0,1-.6-.1L95,13.729l-3.909,2.156a.938.938,0,0,1-1.293-.423,1.045,1.045,0,0,1-.1-.629l.748-4.547L87.286,7.063a1.033,1.033,0,0,1-.012-1.414.938.938,0,0,1,.542-.288L92.189,4.7,94.142.559A.938.938,0,0,1,95.423.1a.977.977,0,0,1,.434.452" transform="translate(-87 0)" fill="#2c2929"/>
</svg>
